<?xml version="1.0" encoding="UTF-8" standalone="no"?>
<!-- Created with Inkscape (http://www.inkscape.org/) -->

<svg
   xmlns:dc="http://purl.org/dc/elements/1.1/"
   xmlns:cc="http://creativecommons.org/ns#"
   xmlns:rdf="http://www.w3.org/1999/02/22-rdf-syntax-ns#"
   xmlns:svg="http://www.w3.org/2000/svg"
   xmlns="http://www.w3.org/2000/svg"
   xmlns:sodipodi="http://sodipodi.sourceforge.net/DTD/sodipodi-0.dtd"
   xmlns:inkscape="http://www.inkscape.org/namespaces/inkscape"
   width="40"
   height="40"
   viewBox="0 0 39.999998 40.000001"
   id="svg8164"
   version="1.1"
   inkscape:version="0.48.4 r9939"
   sodipodi:docname="Body.svg">
  <defs
     id="defs8166" />
  <sodipodi:namedview
     id="base"
     pagecolor="#ffffff"
     bordercolor="#666666"
     borderopacity="1.0"
     inkscape:pageopacity="0.0"
     inkscape:pageshadow="2"
     inkscape:zoom="5.6"
     inkscape:cx="-0.81081571"
     inkscape:cy="-0.9691643"
     inkscape:document-units="px"
     inkscape:current-layer="g8135"
     showgrid="false"
     fit-margin-top="0"
     fit-margin-left="0"
     fit-margin-right="0"
     fit-margin-bottom="0"
     inkscape:window-width="1598"
     inkscape:window-height="755"
     inkscape:window-x="0"
     inkscape:window-y="32"
     inkscape:window-maximized="0"
     width="40px" />
  <metadata
     id="metadata8169">
    <rdf:RDF>
      <cc:Work
         rdf:about="">
        <dc:format>image/svg+xml</dc:format>
        <dc:type
           rdf:resource="http://purl.org/dc/dcmitype/StillImage" />
        <dc:title />
      </cc:Work>
    </rdf:RDF>
  </metadata>
  <g
     inkscape:label="Layer 1"
     inkscape:groupmode="layer"
     id="layer1"
     transform="translate(-604.30511,-450.37756)">
    <g
       id="g8135"
       transform="matrix(0.09097306,-0.08134951,0.08134951,0.09097306,474.2654,530.44691)"
       style="fill:#000000;fill-opacity:1">
      <g
         id="g3906"
         transform="matrix(0.88323461,-0.90000013,0.90000013,0.88323461,-220.82459,1175.7144)"
         style="fill:#ff0000;fill-opacity:1;stroke:#000000;stroke-opacity:1;stroke-width:3.24903175;stroke-miterlimit:4;stroke-dasharray:none">
        <rect
           transform="matrix(0.74931667,0.66221184,-0.66221184,0.74931667,0,0)"
           style="fill:#ff0000;fill-opacity:1;fill-rule:nonzero;stroke:#000000;stroke-width:3.24903176;stroke-miterlimit:4;stroke-opacity:1;stroke-dasharray:none"
           id="rect8099"
           width="17.5"
           height="141.42857"
           x="1112.9622"
           y="-560.90308" />
        <rect
           transform="matrix(0.74931667,0.66221184,-0.66221184,0.74931667,0,0)"
           style="fill:#ff0000;fill-opacity:1;fill-rule:nonzero;stroke:#000000;stroke-width:3.24903176;stroke-miterlimit:4;stroke-opacity:1;stroke-dasharray:none"
           id="rect8103"
           width="17.5"
           height="112.14286"
           x="1090.4271"
           y="-546.39191" />
        <rect
           transform="matrix(0.74931667,0.66221184,-0.66221184,0.74931667,0,0)"
           y="-532.05927"
           x="1067.8921"
           height="83.214287"
           width="17.5"
           id="rect8105"
           style="fill:#ff0000;fill-opacity:1;fill-rule:nonzero;stroke:#000000;stroke-width:3.24903176;stroke-miterlimit:4;stroke-opacity:1;stroke-dasharray:none" />
        <rect
           transform="matrix(0.74931667,0.66221184,-0.66221184,0.74931667,0,0)"
           style="fill:#ff0000;fill-opacity:1;fill-rule:nonzero;stroke:#000000;stroke-width:3.24903176;stroke-miterlimit:4;stroke-opacity:1;stroke-dasharray:none"
           id="rect8107"
           width="11.428571"
           height="15.357144"
           x="1051.8213"
           y="-498.24237" />
        <rect
           transform="matrix(0.75156434,0.65965979,-0.66382111,0.74789139,0,0)"
           y="-493.5997"
           x="1134.1508"
           height="15.896326"
           width="130.39635"
           id="rect8109"
           style="fill:#ff0000;fill-opacity:1;fill-rule:nonzero;stroke:#000000;stroke-width:3.24905678;stroke-miterlimit:4;stroke-opacity:1;stroke-dasharray:none" />
        <rect
           y="-559.98193"
           x="-1288.1025"
           height="141.42857"
           width="17.5"
           id="rect8119"
           style="fill:#ff0000;fill-opacity:1;fill-rule:nonzero;stroke:#000000;stroke-width:3.24903176;stroke-miterlimit:4;stroke-opacity:1;stroke-dasharray:none"
           transform="matrix(-0.74931667,-0.66221184,-0.66221184,0.74931667,0,0)" />
        <rect
           y="-545.2074"
           x="-1310.6376"
           height="112.14286"
           width="17.5"
           id="rect8121"
           style="fill:#ff0000;fill-opacity:1;fill-rule:nonzero;stroke:#000000;stroke-width:3.24903176;stroke-miterlimit:4;stroke-opacity:1;stroke-dasharray:none"
           transform="matrix(-0.74931667,-0.66221184,-0.66221184,0.74931667,0,0)" />
        <rect
           style="fill:#ff0000;fill-opacity:1;fill-rule:nonzero;stroke:#000000;stroke-width:3.24903176;stroke-miterlimit:4;stroke-opacity:1;stroke-dasharray:none"
           id="rect8123"
           width="17.5"
           height="83.214287"
           x="-1333.1726"
           y="-530.61145"
           transform="matrix(-0.74931667,-0.66221184,-0.66221184,0.74931667,0,0)" />
        <rect
           y="-496.57123"
           x="-1349.2434"
           height="15.357144"
           width="11.428571"
           id="rect8125"
           style="fill:#ff0000;fill-opacity:1;fill-rule:nonzero;stroke:#000000;stroke-width:3.24903176;stroke-miterlimit:4;stroke-opacity:1;stroke-dasharray:none"
           transform="matrix(-0.74931667,-0.66221184,-0.66221184,0.74931667,0,0)" />
      </g>
    </g>
  </g>
</svg>
