<?xml version="1.0" encoding="UTF-8" standalone="no"?>
<svg
   xmlns:dc="http://purl.org/dc/elements/1.1/"
   xmlns:cc="http://creativecommons.org/ns#"
   xmlns:rdf="http://www.w3.org/1999/02/22-rdf-syntax-ns#"
   xmlns:svg="http://www.w3.org/2000/svg"
   xmlns="http://www.w3.org/2000/svg"
   xmlns:sodipodi="http://sodipodi.sourceforge.net/DTD/sodipodi-0.dtd"
   xmlns:inkscape="http://www.inkscape.org/namespaces/inkscape"
   id="svg2"
   viewBox="0 0 40 40"
   version="1.1"
   inkscape:version="0.48.4 r9939"
   width="100%"
   height="100%"
   sodipodi:docname="Sensor.svg">
  <sodipodi:namedview
     pagecolor="#ffffff"
     bordercolor="#666666"
     borderopacity="1"
     objecttolerance="10"
     gridtolerance="10"
     guidetolerance="10"
     inkscape:pageopacity="0"
     inkscape:pageshadow="2"
     inkscape:window-width="1598"
     inkscape:window-height="819"
     id="namedview29"
     showgrid="false"
     inkscape:zoom="5.6239683"
     inkscape:cx="38.312615"
     inkscape:cy="-8.2074632"
     inkscape:window-x="0"
     inkscape:window-y="16"
     inkscape:window-maximized="0"
     inkscape:current-layer="svg2" />
  <title
     id="title3006">Progress</title>
  <defs
     id="defs4">
    <filter
       id="filter3799"
       width="1.2043999"
       y="-0.14526001"
       x="-0.10222"
       height="1.2905"
       color-interpolation-filters="sRGB">
      <feGaussianBlur
         id="feGaussianBlur3801"
         stdDeviation="11.5" />
    </filter>
    <filter
       id="filter3944"
       color-interpolation-filters="sRGB">
      <feGaussianBlur
         id="feGaussianBlur3946"
         stdDeviation="7.76" />
    </filter>
  </defs>
  <rect
     style="opacity:0.29310004;fill:none;stroke:#393939;stroke-width:0.08210651"
     x="2.8049877"
     y="1.0623053"
     width="38.898781"
     height="38.898781"
     id="rect2985" />
  <g
     style="stroke:#000000;stroke-width:24.35860443;stroke-miterlimit:4;stroke-dasharray:none"
     id="g3862"
     transform="matrix(0.08210651,0,0,0.08210651,-8.8065149,-19.986518)">
    <path
       id="path3755"
       d="m 170,312.36 v 345"
       inkscape:connector-curvature="0"
       style="fill:none;stroke-width:24.35860443;stroke-miterlimit:4;stroke-dasharray:none" />
    <path
       id="path3761"
       d="m 170,287.36 -10,30 h 20 z"
       inkscape:connector-curvature="0"
       style="stroke-width:24.35860443;stroke-miterlimit:4;stroke-dasharray:none" />
  </g>
  <g
     style="stroke:#000000;stroke-width:24.35860443;stroke-miterlimit:4;stroke-dasharray:none"
     id="g3866"
     transform="matrix(0.08210651,0,0,0.08210651,-8.8065149,-19.986518)">
    <path
       id="path3757"
       d="M 533,655.36 157.87898,654.2772"
       inkscape:connector-curvature="0"
       style="fill:none;stroke-width:24.35860443;stroke-miterlimit:4;stroke-dasharray:none"
       sodipodi:nodetypes="cc" />
    <path
       id="path3763"
       d="m 558,655.36 -30,-10 v 20 z"
       inkscape:connector-curvature="0"
       style="stroke-width:24.35860443;stroke-miterlimit:4;stroke-dasharray:none" />
  </g>
  <path
     style="fill:none;stroke:#fa0000;stroke-width:4;stroke-linecap:round;stroke-linejoin:round;stroke-miterlimit:4;stroke-dasharray:none"
     inkscape:connector-curvature="0"
     d="m 11.348805,24.053174 4.105326,-3.284261 6.56852,4.926391 11.494912,-15.600237"
     id="path3767" />
  <metadata
     id="metadata27">
    <rdf:RDF>
      <cc:Work>
        <dc:format>image/svg+xml</dc:format>
        <dc:type
           rdf:resource="http://purl.org/dc/dcmitype/StillImage" />
        <cc:license
           rdf:resource="http://creativecommons.org/licenses/publicdomain/" />
        <dc:publisher>
          <cc:Agent
             rdf:about="http://openclipart.org/">
            <dc:title>Openclipart</dc:title>
          </cc:Agent>
        </dc:publisher>
        <dc:title>Progress</dc:title>
        <dc:date>2013-05-17T18:08:54</dc:date>
        <dc:description>A graph of progress</dc:description>
        <dc:source>https://openclipart.org/detail/178279/progress-by-kamil_stepinski-178279</dc:source>
        <dc:creator>
          <cc:Agent>
            <dc:title>kamil_stepinski</dc:title>
          </cc:Agent>
        </dc:creator>
        <dc:subject>
          <rdf:Bag>
            <rdf:li>chart</rdf:li>
            <rdf:li>graph</rdf:li>
            <rdf:li>progress</rdf:li>
          </rdf:Bag>
        </dc:subject>
      </cc:Work>
      <cc:License
         rdf:about="http://creativecommons.org/licenses/publicdomain/">
        <cc:permits
           rdf:resource="http://creativecommons.org/ns#Reproduction" />
        <cc:permits
           rdf:resource="http://creativecommons.org/ns#Distribution" />
        <cc:permits
           rdf:resource="http://creativecommons.org/ns#DerivativeWorks" />
      </cc:License>
    </rdf:RDF>
  </metadata>
</svg>
