<?xml version="1.0" encoding="UTF-8" standalone="no"?>
<svg
   xmlns:dc="http://purl.org/dc/elements/1.1/"
   xmlns:cc="http://creativecommons.org/ns#"
   xmlns:rdf="http://www.w3.org/1999/02/22-rdf-syntax-ns#"
   xmlns:svg="http://www.w3.org/2000/svg"
   xmlns="http://www.w3.org/2000/svg"
   xmlns:sodipodi="http://sodipodi.sourceforge.net/DTD/sodipodi-0.dtd"
   xmlns:inkscape="http://www.inkscape.org/namespaces/inkscape"
   id="svg1"
   sodipodi:docname="Torque.svg"
   viewBox="0 0 40 40"
   sodipodi:version="0.32"
   _SVGFile__filename="oldscale/actions/circle.svg"
   version="1.0"
   y="0"
   x="0"
   inkscape:version="0.48.4 r9939"
   width="100%"
   height="100%">
  <defs
     id="defs21" />
  <sodipodi:namedview
     id="base"
     bordercolor="#666666"
     inkscape:pageshadow="2"
     inkscape:window-y="64"
     pagecolor="#ffffff"
     inkscape:window-height="755"
     inkscape:zoom="4.6034679"
     inkscape:window-x="0"
     borderopacity="1.0"
     inkscape:current-layer="g3000-1"
     inkscape:cx="-13.694889"
     inkscape:cy="32.33556"
     inkscape:window-width="1598"
     inkscape:pageopacity="0.0000000"
     showgrid="false"
     inkscape:window-maximized="0" />
  <metadata
     id="metadata19">
    <rdf:RDF>
      <cc:Work>
        <dc:format>image/svg+xml</dc:format>
        <dc:type
           rdf:resource="http://purl.org/dc/dcmitype/StillImage" />
        <cc:license
           rdf:resource="http://creativecommons.org/licenses/publicdomain/" />
        <dc:publisher>
          <cc:Agent
             rdf:about="http://openclipart.org/">
            <dc:title>Openclipart</dc:title>
          </cc:Agent>
        </dc:publisher>
        <dc:title></dc:title>
        <dc:title />
      </cc:Work>
      <cc:License
         rdf:about="http://creativecommons.org/licenses/publicdomain/">
        <cc:permits
           rdf:resource="http://creativecommons.org/ns#Reproduction" />
        <cc:permits
           rdf:resource="http://creativecommons.org/ns#Distribution" />
        <cc:permits
           rdf:resource="http://creativecommons.org/ns#DerivativeWorks" />
      </cc:License>
    </rdf:RDF>
  </metadata>
  <g
     id="g3013"
     transform="translate(-6.9512812,-1.0861377)">
    <path
       sodipodi:nodetypes="cc"
       inkscape:connector-curvature="0"
       id="path2992"
       d="M 12.164743,36.19891 C 5.4419384,14.363664 19.8312,5.0887654 19.984934,5.1353724"
       style="fill:none;stroke:#000000;stroke-width:1px;stroke-linecap:butt;stroke-linejoin:miter;stroke-opacity:1" />
    <path
       inkscape:connector-curvature="0"
       d="m 15.468914,5.5609733 c -0.36081,1.346232 0.4391,2.731608 1.785332,3.092419 1.346657,0.36081 2.732033,-0.4391 3.092843,-1.785331 0.360811,-1.346232 -0.439099,-2.731863 -1.785756,-3.092589 -1.346232,-0.360768 -2.731608,0.439143 -3.092419,1.785501 z"
       style="color:#000000;fill:#ffe940;stroke:#000000;stroke-width:1.32963777;stroke-linecap:round;stroke-linejoin:round;display:block"
       id="path2086-1" />
  </g>
  <g
     id="g3000-1"
     transform="matrix(-0.16547702,-0.76683195,0.71991702,-0.1747779,-1.6807025,-45.625784)">
    <path
       inkscape:connector-curvature="0"
       d="m -68.01036,3.028382 -2.9,8.612 -6.044,-10.223 8.944,1.611 z"
       style="color:#000000;fill:#e71c02;stroke:#e71c02;stroke-width:3.125;stroke-linecap:round;stroke-linejoin:round"
       id="path1317-4" />
    <path
       inkscape:connector-curvature="0"
       d="m -109.52556,27.048382 c 10.892776,1.815507 23.421902,-5.113809 37.779,-21.812"
       style="fill:none;stroke:#e71c02;stroke-width:5;stroke-linecap:round;stroke-linejoin:round"
       id="path1323-3"
       sodipodi:nodetypes="cc" />
  </g>
  <path
     style="fill:none;stroke:#000000;stroke-width:1px;stroke-linecap:butt;stroke-linejoin:miter;stroke-opacity:1"
     d="m 21.722754,5.0263663 c 6.299598,3.6928682 6.299598,3.6928682 6.299598,3.6928682"
     id="path3017"
     inkscape:connector-curvature="0" />
  <path
     style="fill:none;stroke:#000000;stroke-width:1px;stroke-linecap:butt;stroke-linejoin:miter;stroke-opacity:1"
     d="m 21.288299,8.7192345 c 6.734053,4.5617785 6.734053,4.5617785 6.734053,4.5617785"
     id="path3019"
     inkscape:connector-curvature="0" />
  <path
     style="fill:none;stroke:#000000;stroke-width:1px;stroke-linecap:butt;stroke-linejoin:miter;stroke-opacity:1"
     d="m 13.685335,15.236061 c -0.217228,6.516826 -0.217228,6.516826 -0.217228,6.516826"
     id="path3021"
     inkscape:connector-curvature="0" />
  <path
     style="fill:none;stroke:#000000;stroke-width:1px;stroke-linecap:butt;stroke-linejoin:miter;stroke-opacity:1"
     d="M 10.426922,15.018833 C 8.2546465,25.228527 8.2546465,25.228527 8.2546465,25.228527"
     id="path3023"
     inkscape:connector-curvature="0" />
</svg>
